module go-covid

go 1.17

require (
	github.com/andybalholm/brotli v1.0.2 // indirect
	github.com/gocarina/gocsv v0.0.0-20211203214250-4735fba0c1d9 // indirect
	github.com/gofiber/fiber/v2 v2.25.0 // indirect
	github.com/jinzhu/gorm v1.9.16 // indirect
	github.com/jinzhu/inflection v1.0.0 // indirect
	github.com/joho/godotenv v1.4.0 // indirect
	github.com/klauspost/compress v1.13.4 // indirect
	github.com/lib/pq v1.10.4 // indirect
	github.com/valyala/bytebufferpool v1.0.0 // indirect
	github.com/valyala/fasthttp v1.32.0 // indirect
	github.com/valyala/tcplisten v1.0.0 // indirect
	golang.org/x/sys v0.0.0-20210514084401-e8d321eab015 // indirect
)
